------------------------------------------------------------------------
r1216281 | scripty | 2011-01-23 01:14:26 +1300 (Sun, 23 Jan 2011) | 1 line

SVN_SILENT made messages (.desktop file)
------------------------------------------------------------------------
r1222530 | toma | 2011-02-25 06:47:59 +1300 (Fri, 25 Feb 2011) | 2 lines

Readd the wallpapers from the original 4.6 branch, 1 rev before i deleted it.

------------------------------------------------------------------------
